Methods for quick visualization — augment.sample_family • tekkamaki
…
    Value

    augment() returns a data.frame suitable for plotting.

layout_demography() computes coordinates for plotting genealogy.

plot() returns a ggplot2 object.

    Examples

set.seed(666)
result = tekka("-y25 -l2 --sa 2,2 --sj 2,2")
samples = result$sample_family[[1L]]
augment(samples)
#> # A tibble: 222 × 10
#>     from    to birth_year capture_year sampled     x     y  xend  yend label
#>    <int> <int>      <int>        <int> <lgl>   <int> <int> <int> <int> <int>
#>  1    17     1         24           24 TRUE        1    24     1    19     1
#>  2    43     1         24           24 TRUE        1    24     2    19     1
#>  3    57     2         24           24 TRUE        2    24     3    19     2
#>  4    15     2         24           24 TRUE        2    24     1    18     2
#>  5    59     3         20           24 TRUE        1    20     3    10     3
#>  6    60     3         20           24 TRUE        1    20     2    13     3
#>  7    63     4         20           24 TRUE        2    20     2    15     4
#>  8    65     4         20           24 TRUE        2    20     3    15     4
#>  9    66     5         25           25 TRUE        1    25     4    20     5
#> 10    71     5         25           25 TRUE        1    25     2    21     5
#> # ℹ 212 more rows
…
