Basic usage of tekkamaki • tekkamaki
…
## # A tibble: 1 × 17
##   carrying_capacity fishing_coef fishing_mortality  last migration_matrices
##               <dbl> <list>       <list>            <int> <list>            
## 1              2000 <list [0]>   <dbl [84]>            3 <dbl [9 × 4 × 4]> 
## # ℹ 12 more variables: natural_mortality <list>, origin <int>, outdir <chr>,
## #   overdispersion <dbl>, recruitment <dbl>, sample_size_adult <list>,
## #   sample_size_juvenile <list>, seed <int>, weight_for_age <list>,
## #   years <int>, sample_family <list>, demography <list>

A result is a nested tibble with two columns:
sample_family and demography:

sample_family = result$sample_family[[1L]] |> print()

## # A tibble: 7,116 × 6
##       id father_id mother_id birth_year location capture_year
##    <int>     <int>     <int>      <int>    <int>        <int>
##  1   132         0         0         -4       NA           NA
##  2   131       132       132          0       NA           NA
##  3   133       132       132          0       NA           NA
##  4   130       131       133          5       NA           NA
##  5   136       132       132          0       NA           NA
##  6   137       132       132          0       NA           NA
##  7   135       136       137          4       NA           NA
##  8   139       132       132          0       NA           NA
##  9   140       132       132          0       NA           NA
## 10   138       139       140          4       NA           NA
## # ℹ 7,106 more rows

demography = result$demography[[1L]] |> print()

## # A tibble: 6,784 × 5
##     year season location   age count
##    <dbl>  <dbl>    <dbl> <dbl> <dbl>
##  1     0      0        0     0  2000
##  2     0      1        0     0  1220
##  3     0      2        0     0   788
##  4     0      3        0     0   467
##  5     4      0        0     0  1057
##  6     4      0        0     4    19
##  7     4      1        0     0   652
##  8     4      1        0     4    13
##  9     4      2        0     0   394
## 10     4      2        0     4    13
## # ℹ 6,774 more rows
…
