Extract Kinship • tekkamaki
…
Run simulation:

result = tekka("--seed=42 -y100 -l3 --sa 10,10 --sj 10,10") |> print()

## # A tibble: 1 × 13
##   carrying_capacity infile  last origin outdir        overdispersion recruitment
##               <dbl> <chr>  <int>  <dbl> <chr>                  <dbl>       <dbl>
## 1              1000 ""         3    0.2 /var/folders…             -1           2
## # ℹ 6 more variables: sample_size_adult <list>, sample_size_juvenile <list>,
## #   seed <int>, years <int>, sample_family <list>, demography <list>

sample_family = result$sample_family[[1L]] |> print()

## # A tibble: 7,480 × 6
##       id father_id mother_id birth_year location capture_year
##    <int>     <int>     <int>      <int>    <int>        <int>
##  1   133         0         0         -4       NA           NA
##  2   134         0         0         -4       NA           NA
##  3   132       133       134          1       NA           NA
##  4   139         0         0         -4       NA           NA
##  5   140         0         0         -4       NA           NA
##  6   138       139       140          1       NA           NA
##  7   142         0         0         -4       NA           NA
##  8   143         0         0         -4       NA           NA
##  9   141       142       143          1       NA           NA
## 10   137       138       141          6       NA           NA
## # ℹ 7,470 more rows

Extract kinship with degree≤4:

kinship = find_kinship(sample_family, 4L) |> print()

## # A tibble: 209 × 5
##     from    to path   degree label
##    <int> <int> <chr>   <int> <fct>
##  1     1    33 100_1       3 HUN  
##  2     1   117 100_1       3 HUN  
##  3     2    15 100_1       3 HUN  
##  4     2    97 100_1       3 HUN  
##  5     2   101 1100_1      4 HC   
##  6     4    53 100_1       3 HUN  
##  7     4   103 1100_1      4 HC   
##  8     5     7 1100_1      4 HC   
##  9     5    11 1100_1      4 HC   
## 10     5    24 1100_1      4 HC   
## # ℹ 199 more rows
…
Bind other information to kinship data.frame:

sampled = sample_family |>
  dplyr::filter(!is.na(capture_year)) |>
  dplyr::mutate(age = capture_year - birth_year) |>
  dplyr::select("id", "location", "capture_year", "age") |>
  print()

## # A tibble: 120 × 4
##       id location capture_year   age
##    <int>    <int>        <int> <int>
##  1     1        0           98     5
##  2     2        0           98     5
##  3     3        0           98     5
##  4     4        0           98     4
##  5     5        0           98     4
##  6     6        0           98     4
##  7     7        0           98     4
##  8     8        0           98     5
##  9     9        0           98     4
## 10    10        0           98     5
## # ℹ 110 more rows

kinship |>
  dplyr::left_join(sampled, by = c(from = "id")) |>
  dplyr::left_join(sampled, by = c(to = "id"), suffix = c("_from", "_to"))

## # A tibble: 209 × 11
##     from    to path   degree label location_from capture_year_from age_from
##    <int> <int> <chr>   <int> <fct>         <int>             <int>    <int>
##  1     1    33 100_1       3 HUN               0                98        5
##  2     1   117 100_1       3 HUN               0                98        5
##  3     2    15 100_1       3 HUN               0                98        5
##  4     2    97 100_1       3 HUN               0                98        5
##  5     2   101 1100_1      4 HC                0                98        5
##  6     4    53 100_1       3 HUN               0                98        4
##  7     4   103 1100_1      4 HC                0                98        4
##  8     5     7 1100_1      4 HC                0                98        4
##  9     5    11 1100_1      4 HC                0                98        4
## 10     5    24 1100_1      4 HC                0                98        4
## # ℹ 199 more rows
## # ℹ 3 more variables: location_to <int>, capture_year_to <int>, age_to <int>
…
