Simulate SNP pattern • tekkamaki
…
Generate a gene genealogy

result = tekka("--seed 42 -y40 -K100 -r2 -l2 --sa 2,2 --sj 2,2")
samples = result$sample_family[[1L]]
segments = gather_segments(samples)
set.seed(666L)
genealogy = make_gene_genealogy(segments) |> print()

## $V  tibble [379 × 1] (S3: tbl_df/tbl/data.frame)
##  $ name: chr [1:379] "43-2" "1-1" "17-2" "1-2" ...
## # A tibble: 362 × 5
##    from  to    birth_year capture_year sampled
##    <chr> <chr>      <int>        <int> <lgl>  
##  1 43-2  1-1           34           39 TRUE   
##  2 17-2  1-2           34           39 TRUE   
##  3 67-2  2-1           34           39 TRUE   
##  4 62-1  2-2           34           39 TRUE   
##  5 87-1  3-1           39           39 TRUE   
##  6 78-2  3-2           39           39 TRUE   
##  7 107-2 4-1           39           39 TRUE   
##  8 93-1  4-2           39           39 TRUE   
##  9 80-1  5-1           36           40 TRUE   
## 10 110-2 5-2           36           40 TRUE   
## # ℹ 352 more rows
…
