Basic usage of tekkamaki • tekkamaki
…
library(dplyr)
library(ggplot2)
library(tekkamaki)

result = tekka("--seed=42 -y100 -l3") %>% print()
#> # A tibble: 1 x 2
#>   sample_family                   demography                   
#>   <list>                          <list>                       
#> 1 <sample_family[,6] [7,485 × 6]> <spec_tbl_df[,5] [4,601 × 5]>

A result is a nested tibble with two columns: sample_family and demography:

sample_family = result$sample_family[[1L]] %>% print()
#> # A tibble: 7,485 x 6
#>       id father_id mother_id birth_year location capture_year
#>    <int>     <int>     <int>      <int>    <int>        <int>
#>  1    74         0         0         -4       NA           NA
#>  2    75         0         0         -4       NA           NA
#>  3    73        74        75          1       NA           NA
#>  4    77         0         0         -4       NA           NA
#>  5    78         0         0         -4       NA           NA
#>  6    76        77        78          1       NA           NA
#>  7    72        73        76          8       NA           NA
#>  8    81         0         0         -4       NA           NA
#>  9    82         0         0         -4       NA           NA
#> 10    80        81        82          1       NA           NA
#> # … with 7,475 more rows
demography = result$demography[[1L]] %>% print()
#> # A tibble: 4,601 x 5
#>     year season location   age count
#>    <dbl>  <dbl>    <dbl> <dbl> <dbl>
#>  1     0      3        0     4   200
#>  2     1      0        0     0 13457
#>  3     1      3        0     0  1543
#>  4     1      3        2     0  1543
#>  5     2      0        2     1  1543
#>  6     2      3        2     1   248
#>  7     2      3        3     1   253
#>  8     3      0        2     2   248
#>  9     3      0        3     2   253
#> 10     3      3        2     2   175
#> # … with 4,591 more rows
…
